Dep-wq-data-report
…
Warning in getData(): NAs introduced by coercion

(code) view bad rows

na_rows <- is.na(data$Value) & !is.na(data$Value_orig)
na_introduced_rows <- data[na_rows, ]

print(na_introduced_rows)

# A tibble: 4,989 × 17
    ...1 Source Site    Latitude Longitude Month  Year Parameter     Value Units
   <dbl> <chr>  <chr>   <chr>    <chr>     <dbl> <dbl> <chr>         <dbl> <chr>
 1 10172 AOML   AMI4    27.38060 -83.03420     8  2022 Chlorophyll a    NA ug/L 
 2 10178 AOML   V3      27.03630 -82.61340     8  2022 Chlorophyll a    NA ug/L 
 3 60251 FIU    Sta 351 24.69170 -81.79170     1  2011 Chlorophyll a    NA ug/L 
 4 60252 FIU    Sta 351 24.69170 -81.79170     4  2011 Chlorophyll a    NA ug/L 
 5 60253 FIU    Sta 351 24.69170 -81.79170     7  2011 Chlorophyll a    NA ug/L 
 6 60309 FIU    Sta 352 24.77580 -81.78300     1  2011 Chlorophyll a    NA ug/L 
 7 60310 FIU    Sta 352 24.77580 -81.78300     4  2011 Chlorophyll a    NA ug/L 
 8 60311 FIU    Sta 352 24.77580 -81.78300     7  2011 Chlorophyll a    NA ug/L 
 9 60367 FIU    Sta 353 24.85830 -81.77670     1  2011 Chlorophyll a    NA ug/L 
10 60368 FIU    Sta 353 24.85830 -81.77670     4  2011 Chlorophyll a    NA ug/L 
# ℹ 4,979 more rows
# ℹ 7 more variables: `Total Depth` <dbl>, `Sample Depth` <dbl>,
#   `Trend Analysis` <chr>, Continuous <chr>, `Start Date` <dbl>,
#   `End Date` <chr>, Value_orig <chr>
…
